<?xml version="1.0" encoding="UTF-8"?>
<svg xmlns="http://www.w3.org/2000/svg" xmlns:xlink="http://www.w3.org/1999/xlink" width="50pt" height="50pt" viewBox="0 0 50 50" version="1.1">
<g id="surface1">
<path style=" stroke:none;fill-rule:nonzero;fill:rgb(255%,255%,255%);fill-opacity:1;" d="M 37.902344 23.628906 L 14.816406 0.539062 C 14.050781 -0.199219 12.832031 -0.175781 12.097656 0.585938 C 11.375 1.332031 11.375 2.515625 12.097656 3.261719 L 33.824219 24.988281 L 12.097656 46.714844 C 11.34375 47.46875 11.34375 48.683594 12.097656 49.4375 C 12.847656 50.1875 14.066406 50.1875 14.816406 49.4375 L 37.902344 26.347656 C 38.65625 25.597656 38.65625 24.378906 37.902344 23.628906 Z M 37.902344 23.628906 "/>
</g>
</svg>
